{
  "entries": {
    "brew": {
      "handbrake": {
        "version": "1.7.3",
        "bottle": {
          "rebuild": 0,
          "root_url": "https://ghcr.io/v2/homebrew/core",
          "files": {
            "arm64_sequoia": {
              "cellar": ":any_skip_relocation",
              "url": "https://ghcr.io/v2/homebrew/core/handbrake/blobs/sha256:a1cd088e8531f4280b6e1504620e167de44498b357ed72d08ec14cadd54190dc",
              "sha256": "a1cd088e8531f4280b6e1504620e167de44498b357ed72d08ec14cadd54190dc"
            },
            "arm64_sonoma": {
              "cellar": ":any_skip_relocation",
              "url": "https://ghcr.io/v2/homebrew/core/handbrake/blobs/sha256:347873f90a91e53fa45ebbbc35e36616359c5579472b1b959c9385de469a324d",
              "sha256": "347873f90a91e53fa45ebbbc35e36616359c5579472b1b959c9385de469a324d"
            },
            "arm64_ventura": {
              "cellar": ":any_skip_relocation",
              "url": "https://ghcr.io/v2/homebrew/core/handbrake/blobs/sha256:c3b32cc386437c1ccb01c2ad1ec36d05534a50eba83f971d0575a0ff161bf852",
              "sha256": "c3b32cc386437c1ccb01c2ad1ec36d05534a50eba83f971d0575a0ff161bf852"
            },
            "arm64_monterey": {
              "cellar": ":any_skip_relocation",
              "url": "https://ghcr.io/v2/homebrew/core/handbrake/blobs/sha256:d21dca5e31bcf0fad0295ca4bc9d2e941e2dfcbeb291d0cd3f722fa401311718",
              "sha256": "d21dca5e31bcf0fad0295ca4bc9d2e941e2dfcbeb291d0cd3f722fa401311718"
            },
            "sonoma": {
              "cellar": ":any_skip_relocation",
              "url": "https://ghcr.io/v2/homebrew/core/handbrake/blobs/sha256:b338d003052d23a3199240f566dbe5bbd915eedab30098ce5f892952317eeffa",
              "sha256": "b338d003052d23a3199240f566dbe5bbd915eedab30098ce5f892952317eeffa"
            },
            "ventura": {
              "cellar": ":any_skip_relocation",
              "url": "https://ghcr.io/v2/homebrew/core/handbrake/blobs/sha256:ccec04e70d6034016ca392aac8692cf8d95621f69d4efb3adadbd01edb45d476",
              "sha256": "ccec04e70d6034016ca392aac8692cf8d95621f69d4efb3adadbd01edb45d476"
            },
            "monterey": {
              "cellar": ":any_skip_relocation",
              "url": "https://ghcr.io/v2/homebrew/core/handbrake/blobs/sha256:aba4457f9045b7be4e966d8bedbf1db2d43c3d599d8a170de718c3f0b66f9ae9",
              "sha256": "aba4457f9045b7be4e966d8bedbf1db2d43c3d599d8a170de718c3f0b66f9ae9"
            },
            "x86_64_linux": {
              "cellar": ":any_skip_relocation",
              "url": "https://ghcr.io/v2/homebrew/core/handbrake/blobs/sha256:99e46b6be919867b917eb6db71151c02b601712d7e4403ea60aaa22d154d2db3",
              "sha256": "99e46b6be919867b917eb6db71151c02b601712d7e4403ea60aaa22d154d2db3"
            }
          }
        }
      },
      "ffmpeg": {
        "version": "7.0.2_1",
        "bottle": {
          "rebuild": 0,
          "root_url": "https://ghcr.io/v2/homebrew/core",
          "files": {
            "arm64_sequoia": {
              "cellar": "/opt/homebrew/Cellar",
              "url": "https://ghcr.io/v2/homebrew/core/ffmpeg/blobs/sha256:f304b6bf3b67183b9b390ce3e62fcb4eb02c8da31456c540f4c8bbe7d2d6a220",
              "sha256": "f304b6bf3b67183b9b390ce3e62fcb4eb02c8da31456c540f4c8bbe7d2d6a220"
            },
            "arm64_sonoma": {
              "cellar": "/opt/homebrew/Cellar",
              "url": "https://ghcr.io/v2/homebrew/core/ffmpeg/blobs/sha256:afadd6a7d7698e1bb21bff339c787e8fef3e9678d29b2f4c8e09713527b96b4a",
              "sha256": "afadd6a7d7698e1bb21bff339c787e8fef3e9678d29b2f4c8e09713527b96b4a"
            },
            "arm64_ventura": {
              "cellar": "/opt/homebrew/Cellar",
              "url": "https://ghcr.io/v2/homebrew/core/ffmpeg/blobs/sha256:5cdfdc7387f2a446a7f9d452b88f87f4f68643432aaf6f742f47164b4236b857",
              "sha256": "5cdfdc7387f2a446a7f9d452b88f87f4f68643432aaf6f742f47164b4236b857"
            },
            "sonoma": {
              "cellar": "/usr/local/Cellar",
              "url": "https://ghcr.io/v2/homebrew/core/ffmpeg/blobs/sha256:44e41ccf552d92157f54d337a1b38282c0ea23b5e8fc62cb9792c7a6393453df",
              "sha256": "44e41ccf552d92157f54d337a1b38282c0ea23b5e8fc62cb9792c7a6393453df"
            },
            "ventura": {
              "cellar": "/usr/local/Cellar",
              "url": "https://ghcr.io/v2/homebrew/core/ffmpeg/blobs/sha256:18c1dc237917c54dba4dc22e31bcea3b4f7a97ea5173434f354ea0fb17a88067",
              "sha256": "18c1dc237917c54dba4dc22e31bcea3b4f7a97ea5173434f354ea0fb17a88067"
            },
            "x86_64_linux": {
              "cellar": "/home/linuxbrew/.linuxbrew/Cellar",
              "url": "https://ghcr.io/v2/homebrew/core/ffmpeg/blobs/sha256:114b2aecc4519f4fc762b2b4e691b9e3beb8da10c4a58148212b1ab84624c92d",
              "sha256": "114b2aecc4519f4fc762b2b4e691b9e3beb8da10c4a58148212b1ab84624c92d"
            }
          }
        }
      },
      "youtube-dl": {
        "version": "2021.12.17",
        "bottle": {
          "rebuild": 4,
          "root_url": "https://ghcr.io/v2/homebrew/core",
          "files": {
            "arm64_sequoia": {
              "cellar": ":any_skip_relocation",
              "url": "https://ghcr.io/v2/homebrew/core/youtube-dl/blobs/sha256:3240c7f280872dae967c4d0e63bd5ffc0415b134b3ebda8e5b057b139060059f",
              "sha256": "3240c7f280872dae967c4d0e63bd5ffc0415b134b3ebda8e5b057b139060059f"
            },
            "arm64_sonoma": {
              "cellar": ":any_skip_relocation",
              "url": "https://ghcr.io/v2/homebrew/core/youtube-dl/blobs/sha256:86ad6daf8ba59b37855706201030abfdfa6a334d66ee80ee6351212baa1fccaa",
              "sha256": "86ad6daf8ba59b37855706201030abfdfa6a334d66ee80ee6351212baa1fccaa"
            },
            "arm64_ventura": {
              "cellar": ":any_skip_relocation",
              "url": "https://ghcr.io/v2/homebrew/core/youtube-dl/blobs/sha256:0f0777822da37695c41651a1745fda40a3bda17b7d252b682c74eaa8591023b5",
              "sha256": "0f0777822da37695c41651a1745fda40a3bda17b7d252b682c74eaa8591023b5"
            },
            "arm64_monterey": {
              "cellar": ":any_skip_relocation",
              "url": "https://ghcr.io/v2/homebrew/core/youtube-dl/blobs/sha256:9e1ac5fa2ec5d0dc609a2a52b5862da268bcd2731609aa114491b787105701f1",
              "sha256": "9e1ac5fa2ec5d0dc609a2a52b5862da268bcd2731609aa114491b787105701f1"
            },
            "sonoma": {
              "cellar": ":any_skip_relocation",
              "url": "https://ghcr.io/v2/homebrew/core/youtube-dl/blobs/sha256:d203c17f40f2e3ab8e1d3887539ae66173c4e91b36d28024e7bd98e41c2407a3",
              "sha256": "d203c17f40f2e3ab8e1d3887539ae66173c4e91b36d28024e7bd98e41c2407a3"
            },
            "ventura": {
              "cellar": ":any_skip_relocation",
              "url": "https://ghcr.io/v2/homebrew/core/youtube-dl/blobs/sha256:41ea7b884710606f9e4b2e98d186815d1be48a13fa6e3c945c2c686fec48e25f",
              "sha256": "41ea7b884710606f9e4b2e98d186815d1be48a13fa6e3c945c2c686fec48e25f"
            },
            "monterey": {
              "cellar": ":any_skip_relocation",
              "url": "https://ghcr.io/v2/homebrew/core/youtube-dl/blobs/sha256:f78df8ae4f3c7b6f84f8d2a94bfb1187219c0b2c46a8a2859bf1061940068820",
              "sha256": "f78df8ae4f3c7b6f84f8d2a94bfb1187219c0b2c46a8a2859bf1061940068820"
            },
            "x86_64_linux": {
              "cellar": ":any_skip_relocation",
              "url": "https://ghcr.io/v2/homebrew/core/youtube-dl/blobs/sha256:2abdf78bc998a6fde5c66488e36411df9c0d8326554a031c3dd32aaef651af2c",
              "sha256": "2abdf78bc998a6fde5c66488e36411df9c0d8326554a031c3dd32aaef651af2c"
            }
          }
        }
      }
    },
    "cask": {
      "vlc": {
        "version": "3.0.21",
        "options": {
          "full_name": "vlc"
        }
      },
      "musicbrainz-picard": {
        "version": "2.12.3",
        "options": {
          "full_name": "musicbrainz-picard"
        }
      },
      "macx-dvd-ripper-mac-free-edition": {
        "version": "4.2.5,20170726",
        "options": {
          "full_name": "macx-dvd-ripper-mac-free-edition"
        }
      },
      "makemkv": {
        "version": "1.17.7",
        "options": {
          "full_name": "makemkv"
        }
      },
      "chromedriver": {
        "version": "128.0.6613.137",
        "options": {
          "full_name": "chromedriver"
        }
      }
    }
  },
  "system": {
    "macos": {
      "sonoma": {
        "HOMEBREW_VERSION": "4.3.20",
        "HOMEBREW_PREFIX": "/opt/homebrew",
        "Homebrew/homebrew-core": "api",
        "CLT": "15.3.0.0.1.1708646388",
        "Xcode": "15.4",
        "macOS": "14.6.1"
      }
    }
  }
}
