{
  "entries": {
    "cask": {
      "balenaetcher": {
        "version": "1.18.11",
        "options": {
          "full_name": "balenaetcher"
        }
      }
    },
    "brew": {
      "minikube": {
        "version": "1.32.0",
        "bottle": {
          "rebuild": 0,
          "root_url": "https://ghcr.io/v2/homebrew/core",
          "files": {
            "arm64_sonoma": {
              "cellar": ":any_skip_relocation",
              "url": "https://ghcr.io/v2/homebrew/core/minikube/blobs/sha256:2fa25ebc8759ff50e97f915601eeceb9f02dca260b51f9e858bdb1347b656861",
              "sha256": "2fa25ebc8759ff50e97f915601eeceb9f02dca260b51f9e858bdb1347b656861"
            },
            "arm64_ventura": {
              "cellar": ":any_skip_relocation",
              "url": "https://ghcr.io/v2/homebrew/core/minikube/blobs/sha256:a068a5f5bd364df8e8c0b7084332800943084802c57c72560ae1d7499b8838b7",
              "sha256": "a068a5f5bd364df8e8c0b7084332800943084802c57c72560ae1d7499b8838b7"
            },
            "arm64_monterey": {
              "cellar": ":any_skip_relocation",
              "url": "https://ghcr.io/v2/homebrew/core/minikube/blobs/sha256:e2ad2baca95b4267bc3eec3555dd3228337ce37f892adaba37df845a8ccc6499",
              "sha256": "e2ad2baca95b4267bc3eec3555dd3228337ce37f892adaba37df845a8ccc6499"
            },
            "sonoma": {
              "cellar": ":any_skip_relocation",
              "url": "https://ghcr.io/v2/homebrew/core/minikube/blobs/sha256:4a391ddf8cbc68f14cc70441db46ed7a94412475ffdf16c6a72cea353681ed80",
              "sha256": "4a391ddf8cbc68f14cc70441db46ed7a94412475ffdf16c6a72cea353681ed80"
            },
            "ventura": {
              "cellar": ":any_skip_relocation",
              "url": "https://ghcr.io/v2/homebrew/core/minikube/blobs/sha256:8dd2f235c3886a9a3714436202fdb1638ed32b108bb7ca095357d22f5d298dbf",
              "sha256": "8dd2f235c3886a9a3714436202fdb1638ed32b108bb7ca095357d22f5d298dbf"
            },
            "monterey": {
              "cellar": ":any_skip_relocation",
              "url": "https://ghcr.io/v2/homebrew/core/minikube/blobs/sha256:6e79f66ab867efbd36a805d92198e1f0843f3be147b94bbc0146d235753c601b",
              "sha256": "6e79f66ab867efbd36a805d92198e1f0843f3be147b94bbc0146d235753c601b"
            },
            "x86_64_linux": {
              "cellar": ":any_skip_relocation",
              "url": "https://ghcr.io/v2/homebrew/core/minikube/blobs/sha256:dc42a6ecd1d3129b76afe2959d5a126eb4aafa34a34815483e85eb001adc1894",
              "sha256": "dc42a6ecd1d3129b76afe2959d5a126eb4aafa34a34815483e85eb001adc1894"
            }
          }
        }
      },
      "hashicorp/tap/consul-k8s": {
        "version": "1.3.0",
        "bottle": false
      },
      "kind": {
        "version": "0.20.0",
        "bottle": {
          "rebuild": 0,
          "root_url": "https://ghcr.io/v2/homebrew/core",
          "files": {
            "arm64_sonoma": {
              "cellar": ":any_skip_relocation",
              "url": "https://ghcr.io/v2/homebrew/core/kind/blobs/sha256:2ed88b06d26cb72da488a0f4c231c609aab34f17bd6ade695a36e155793ed54f",
              "sha256": "2ed88b06d26cb72da488a0f4c231c609aab34f17bd6ade695a36e155793ed54f"
            },
            "arm64_ventura": {
              "cellar": ":any_skip_relocation",
              "url": "https://ghcr.io/v2/homebrew/core/kind/blobs/sha256:2f2e8574b476dd2d7390de002bf8ff24c2135f83dd273cebd4e8a52c93d212db",
              "sha256": "2f2e8574b476dd2d7390de002bf8ff24c2135f83dd273cebd4e8a52c93d212db"
            },
            "arm64_monterey": {
              "cellar": ":any_skip_relocation",
              "url": "https://ghcr.io/v2/homebrew/core/kind/blobs/sha256:2f2e8574b476dd2d7390de002bf8ff24c2135f83dd273cebd4e8a52c93d212db",
              "sha256": "2f2e8574b476dd2d7390de002bf8ff24c2135f83dd273cebd4e8a52c93d212db"
            },
            "arm64_big_sur": {
              "cellar": ":any_skip_relocation",
              "url": "https://ghcr.io/v2/homebrew/core/kind/blobs/sha256:2f2e8574b476dd2d7390de002bf8ff24c2135f83dd273cebd4e8a52c93d212db",
              "sha256": "2f2e8574b476dd2d7390de002bf8ff24c2135f83dd273cebd4e8a52c93d212db"
            },
            "sonoma": {
              "cellar": ":any_skip_relocation",
              "url": "https://ghcr.io/v2/homebrew/core/kind/blobs/sha256:fee9e210821734d857f03c2499e1eb77c30db1b28dbce8f8dba550bf67f21fc4",
              "sha256": "fee9e210821734d857f03c2499e1eb77c30db1b28dbce8f8dba550bf67f21fc4"
            },
            "ventura": {
              "cellar": ":any_skip_relocation",
              "url": "https://ghcr.io/v2/homebrew/core/kind/blobs/sha256:c008b4119ddbf085efee3a446f9a882b5612bf833f8970ac7a91820c51737a82",
              "sha256": "c008b4119ddbf085efee3a446f9a882b5612bf833f8970ac7a91820c51737a82"
            },
            "monterey": {
              "cellar": ":any_skip_relocation",
              "url": "https://ghcr.io/v2/homebrew/core/kind/blobs/sha256:c008b4119ddbf085efee3a446f9a882b5612bf833f8970ac7a91820c51737a82",
              "sha256": "c008b4119ddbf085efee3a446f9a882b5612bf833f8970ac7a91820c51737a82"
            },
            "big_sur": {
              "cellar": ":any_skip_relocation",
              "url": "https://ghcr.io/v2/homebrew/core/kind/blobs/sha256:c008b4119ddbf085efee3a446f9a882b5612bf833f8970ac7a91820c51737a82",
              "sha256": "c008b4119ddbf085efee3a446f9a882b5612bf833f8970ac7a91820c51737a82"
            },
            "x86_64_linux": {
              "cellar": ":any_skip_relocation",
              "url": "https://ghcr.io/v2/homebrew/core/kind/blobs/sha256:50ca9034652e3b16335dc18f5262d9e6e2ecc29fa27207d12ec005a0b5b894b2",
              "sha256": "50ca9034652e3b16335dc18f5262d9e6e2ecc29fa27207d12ec005a0b5b894b2"
            }
          }
        }
      }
    },
    "tap": {
      "hashicorp/tap": {
        "revision": "43e9602131032f4b0c8280a0ffd42af4fa0e0860"
      }
    }
  },
  "system": {
    "macos": {
      "sonoma": {
        "HOMEBREW_VERSION": "4.1.25",
        "HOMEBREW_PREFIX": "/opt/homebrew",
        "Homebrew/homebrew-core": "api",
        "CLT": "15.0.0.0.1.1694021235",
        "Xcode": "15.0",
        "macOS": "14.0"
      }
    }
  }
}
